%YAML 1.1
%TAG !u! tag:unity3d.com,2011:
--- !u!58 &3932816439309283755
CircleCollider2D:
  m_ObjectHideFlags: 0
  m_CorrespondingSourceObject: {fileID: 0}
  m_PrefabInstance: {fileID: 0}
  m_PrefabAsset: {fileID: 0}
  m_GameObject: {fileID: 1955877733650430907}
  m_Enabled: 1
  m_Density: 1
  m_Material: {fileID: 0}
  m_IsTrigger: 1
  m_UsedByEffector: 0
  m_UsedByComposite: 0
  m_Offset: {x: 0, y: 0}
  serializedVersion: 2
  m_Radius: 4
--- !u!82 &4789741422047114100
AudioSource:
  m_ObjectHideFlags: 0
  m_CorrespondingSourceObject: {fileID: 0}
  m_PrefabInstance: {fileID: 0}
  m_PrefabAsset: {fileID: 0}
  m_GameObject: {fileID: 1955877733650430907}
  m_Enabled: 1
  serializedVersion: 4
  OutputAudioMixerGroup: {fileID: 24300002, guid: d0e6da453dea31344bfd3d8ca0ebfbd5,
    type: 2}
  m_audioClip: {fileID: 8300000, guid: fae737b53416d524780b18b8b502794e, type: 3}
  m_PlayOnAwake: 0
  m_Volume: 1
  m_Pitch: 1
  Loop: 1
  Mute: 0
  Spatialize: 0
  SpatializePostEffects: 0
  Priority: 128
  DopplerLevel: 1
  MinDistance: 1
  MaxDistance: 500
  Pan2D: 0
  rolloffMode: 0
  BypassEffects: 0
  BypassListenerEffects: 0
  BypassReverbZones: 0
  rolloffCustomCurve:
    serializedVersion: 2
    m_Curve:
    - serializedVersion: 3
      time: 0
      value: 1
      inSlope: 0
      outSlope: 0
      tangentMode: 0
      weightedMode: 0
      inWeight: 0.33333334
      outWeight: 0.33333334
    - serializedVersion: 3
      time: 1
      value: 0
      inSlope: 0
      outSlope: 0
      tangentMode: 0
      weightedMode: 0
      inWeight: 0.33333334
      outWeight: 0.33333334
    m_PreInfinity: 2
    m_PostInfinity: 2
    m_RotationOrder: 4
  panLevelCustomCurve:
    serializedVersion: 2
    m_Curve:
    - serializedVersion: 3
      time: 0
      value: 0
      inSlope: 0
      outSlope: 0
      tangentMode: 0
      weightedMode: 0
      inWeight: 0.33333334
      outWeight: 0.33333334
    m_PreInfinity: 2
    m_PostInfinity: 2
    m_RotationOrder: 4
  spreadCustomCurve:
    serializedVersion: 2
    m_Curve:
    - serializedVersion: 3
      time: 0
      value: 0
      inSlope: 0
      outSlope: 0
      tangentMode: 0
      weightedMode: 0
      inWeight: 0.33333334
      outWeight: 0.33333334
    m_PreInfinity: 2
    m_PostInfinity: 2
    m_RotationOrder: 4
  reverbZoneMixCustomCurve:
    serializedVersion: 2
    m_Curve:
    - serializedVersion: 3
      time: 0
      value: 1
      inSlope: 0
      outSlope: 0
      tangentMode: 0
      weightedMode: 0
      inWeight: 0.33333334
      outWeight: 0.33333334
    m_PreInfinity: 2
    m_PostInfinity: 2
    m_RotationOrder: 4
--- !u!114 &7603610156950086001
MonoBehaviour:
  m_ObjectHideFlags: 0
  m_CorrespondingSourceObject: {fileID: 0}
  m_PrefabInstance: {fileID: 0}
  m_PrefabAsset: {fileID: 0}
  m_GameObject: {fileID: 1955877733650430907}
  m_Enabled: 1
  m_EditorHideFlags: 0
  m_Script: {fileID: 11500000, guid: e9382e39c36a00c499a31b55042f7292, type: 3}
  m_Name: 
  m_EditorClassIdentifier: 
  audioSource: {fileID: 4789741422047114100}
--- !u!1001 &2512442120381545027
PrefabInstance:
  m_ObjectHideFlags: 0
  serializedVersion: 2
  m_Modification:
    m_TransformParent: {fileID: 0}
    m_Modifications:
    - target: {fileID: 2249218062445160746, guid: a557cd8eccf2513479922177258eaccd,
        type: 3}
      propertyPath: m_PlayOnAwake
      value: 0
      objectReference: {fileID: 0}
    - target: {fileID: 2249218062445160746, guid: a557cd8eccf2513479922177258eaccd,
        type: 3}
      propertyPath: Loop
      value: 1
      objectReference: {fileID: 0}
    - target: {fileID: 2249218062445160746, guid: a557cd8eccf2513479922177258eaccd,
        type: 3}
      propertyPath: m_Enabled
      value: 0
      objectReference: {fileID: 0}
    - target: {fileID: 4177458793229468152, guid: a557cd8eccf2513479922177258eaccd,
        type: 3}
      propertyPath: m_TagString
      value: AudioMob
      objectReference: {fileID: 0}
    - target: {fileID: 9033554859199269216, guid: a557cd8eccf2513479922177258eaccd,
        type: 3}
      propertyPath: m_SortingOrder
      value: 1
      objectReference: {fileID: 0}
    - target: {fileID: 9033554859199269219, guid: a557cd8eccf2513479922177258eaccd,
        type: 3}
      propertyPath: m_Name
      value: LVL1MOB Variant
      objectReference: {fileID: 0}
    - target: {fileID: 9033554859199269231, guid: a557cd8eccf2513479922177258eaccd,
        type: 3}
      propertyPath: m_LocalPosition.x
      value: 0
      objectReference: {fileID: 0}
    - target: {fileID: 9033554859199269231, guid: a557cd8eccf2513479922177258eaccd,
        type: 3}
      propertyPath: m_LocalPosition.y
      value: 1.841
      objectReference: {fileID: 0}
    - target: {fileID: 9033554859199269231, guid: a557cd8eccf2513479922177258eaccd,
        type: 3}
      propertyPath: m_LocalPosition.z
      value: 0
      objectReference: {fileID: 0}
    - target: {fileID: 9033554859199269231, guid: a557cd8eccf2513479922177258eaccd,
        type: 3}
      propertyPath: m_LocalRotation.x
      value: 0
      objectReference: {fileID: 0}
    - target: {fileID: 9033554859199269231, guid: a557cd8eccf2513479922177258eaccd,
        type: 3}
      propertyPath: m_LocalRotation.y
      value: 0
      objectReference: {fileID: 0}
    - target: {fileID: 9033554859199269231, guid: a557cd8eccf2513479922177258eaccd,
        type: 3}
      propertyPath: m_LocalRotation.z
      value: 0
      objectReference: {fileID: 0}
    - target: {fileID: 9033554859199269231, guid: a557cd8eccf2513479922177258eaccd,
        type: 3}
      propertyPath: m_LocalRotation.w
      value: 1
      objectReference: {fileID: 0}
    - target: {fileID: 9033554859199269231, guid: a557cd8eccf2513479922177258eaccd,
        type: 3}
      propertyPath: m_RootOrder
      value: 0
      objectReference: {fileID: 0}
    - target: {fileID: 9033554859199269231, guid: a557cd8eccf2513479922177258eaccd,
        type: 3}
      propertyPath: m_LocalEulerAnglesHint.x
      value: 0
      objectReference: {fileID: 0}
    - target: {fileID: 9033554859199269231, guid: a557cd8eccf2513479922177258eaccd,
        type: 3}
      propertyPath: m_LocalEulerAnglesHint.y
      value: 0
      objectReference: {fileID: 0}
    - target: {fileID: 9033554859199269231, guid: a557cd8eccf2513479922177258eaccd,
        type: 3}
      propertyPath: m_LocalEulerAnglesHint.z
      value: 0
      objectReference: {fileID: 0}
    m_RemovedComponents:
    - {fileID: 3620579670331279587, guid: a557cd8eccf2513479922177258eaccd, type: 3}
    - {fileID: 3276448745972636043, guid: a557cd8eccf2513479922177258eaccd, type: 3}
    - {fileID: 2249218062445160746, guid: a557cd8eccf2513479922177258eaccd, type: 3}
    - {fileID: 8863800176941080961, guid: a557cd8eccf2513479922177258eaccd, type: 3}
  m_SourcePrefab: {fileID: 100100000, guid: a557cd8eccf2513479922177258eaccd, type: 3}
--- !u!1 &1955877733650430907 stripped
GameObject:
  m_CorrespondingSourceObject: {fileID: 4177458793229468152, guid: a557cd8eccf2513479922177258eaccd,
    type: 3}
  m_PrefabInstance: {fileID: 2512442120381545027}
  m_PrefabAsset: {fileID: 0}
